\relax 
\providecommand\hyper@newdestlabel[2]{}
\providecommand*\new@tpo@label[2]{}
\catcode `"\active 
\providecommand\HyperFirstAtBeginDocument{\AtBeginDocument}
\HyperFirstAtBeginDocument{\ifx\hyper@anchor\@undefined
\global\let\oldcontentsline\contentsline
\gdef\contentsline#1#2#3#4{\oldcontentsline{#1}{#2}{#3}}
\global\let\oldnewlabel\newlabel
\gdef\newlabel#1#2{\newlabelxx{#1}#2}
\gdef\newlabelxx#1#2#3#4#5#6{\oldnewlabel{#1}{{#2}{#3}}}
\AtEndDocument{\ifx\hyper@anchor\@undefined
\let\contentsline\oldcontentsline
\let\newlabel\oldnewlabel
\fi}
\fi}
\global\let\hyper@last\relax 
\gdef\HyperFirstAtBeginDocument#1{#1}
\providecommand\HyField@AuxAddToFields[1]{}
\providecommand\HyField@AuxAddToCoFields[2]{}
\babel@aux{english}{}
\@writefile{toc}{\contentsline {chapter}{\nonumberline List of Figures}{1}{chapter*.4}}
\@writefile{toc}{\contentsline {chapter}{\nonumberline List of Tables}{2}{chapter*.5}}
\citation{Jordan2015}
\citation{Turing2017}
\citation{Russel2010}
\citation{Zhou2017}
\@writefile{toc}{\contentsline {chapter}{\numberline {1}Introduction}{3}{chapter.6}}
\@writefile{lof}{\addvspace {10\p@ }}
\@writefile{lot}{\addvspace {10\p@ }}
\@writefile{lol}{\addvspace {10\p@ }}
\newlabel{intro}{{1}{3}{Introduction}{chapter.6}{}}
\@writefile{toc}{\contentsline {section}{\numberline {1.1}Bomberman}{3}{section.7}}
\@writefile{toc}{\contentsline {section}{\numberline {1.2}Machine learning}{3}{section.8}}
\citation{Li2017}
\citation{Sutton}
\citation{Sutton}
\citation{Tokic2010}
\citation{Song2016}
\@writefile{toc}{\contentsline {section}{\numberline {1.3}Reinforcement Learning}{4}{section.9}}
\citation{Mnih2013}
\@writefile{toc}{\contentsline {chapter}{\numberline {2}Methods}{6}{chapter.10}}
\@writefile{lof}{\addvspace {10\p@ }}
\@writefile{lot}{\addvspace {10\p@ }}
\@writefile{lol}{\addvspace {10\p@ }}
\newlabel{meth}{{2}{6}{Methods}{chapter.10}{}}
\@writefile{toc}{\contentsline {section}{\numberline {2.1}Tree-based Models}{6}{section.11}}
\@writefile{toc}{\contentsline {subsection}{\numberline {2.1.1}Gradient Boosting}{6}{subsection.12}}
\newlabel{fig:gradientboosting}{{2.1.1}{7}{Gradient Boosting}{subsection.12}{}}
\@writefile{lof}{\contentsline {figure}{\numberline {2.1}{\ignorespaces Gradient Boosting 2-class Classifier}}{7}{figure.13}}
\citation{Ogutu2011}
\citation{Nawar2017}
\@writefile{toc}{\contentsline {subsection}{\numberline {2.1.2}Comparison of Random Forest and Gradient Boosting}{8}{subsection.20}}
\@writefile{toc}{\contentsline {section}{\numberline {2.2}Neural Networks}{9}{section.21}}
\newlabel{eq:per}{{2.1}{9}{Neural Networks}{equation.22}{}}
\newlabel{fig:per}{{2.2}{9}{Neural Networks}{equation.22}{}}
\@writefile{lof}{\contentsline {figure}{\numberline {2.2}{\ignorespaces Perceptron}}{9}{figure.23}}
\citation{Rumelhart1986}
\newlabel{eq:MLP}{{2.2}{10}{Neural Networks}{equation.24}{}}
\newlabel{fig:MLP}{{2.2}{10}{Neural Networks}{equation.24}{}}
\@writefile{lof}{\contentsline {figure}{\numberline {2.3}{\ignorespaces Multi Layer Perceptron (MLP)}}{10}{figure.25}}
\@writefile{toc}{\contentsline {subsection}{\numberline {2.2.1}NN Agent using Keras}{10}{subsection.26}}
\citation{Hinton2012}
\citation{Srivastava2014}
\@writefile{toc}{\contentsline {subsubsection}{\nonumberline Structure of the NN}{11}{section*.29}}
\newlabel{fig:Dropout}{{2.2.1}{11}{Structure of the NN}{section*.29}{}}
\@writefile{lof}{\contentsline {figure}{\numberline {2.4}{\ignorespaces MLP with Dropout}}{11}{figure.30}}
\citation{He2015}
\@writefile{toc}{\contentsline {subsubsection}{\nonumberline Activation Function}{12}{section*.31}}
\@writefile{toc}{\contentsline {subsubsection}{\nonumberline Initializer}{12}{section*.33}}
\citation{Ruder2016}
\citation{Kingma2014}
\@writefile{toc}{\contentsline {subsubsection}{\nonumberline Optimizer}{13}{section*.34}}
\newlabel{eq:RMS}{{2.3}{13}{Optimizer}{equation.35}{}}
\@writefile{toc}{\contentsline {subsubsection}{\nonumberline Training}{14}{section*.39}}
\@writefile{toc}{\contentsline {subsubsection}{\nonumberline Results and further improvement}{14}{section*.40}}
\citation{DBLP:journals/corr/SchulmanWDRK17}
\citation{2015arXiv150205477S}
\@writefile{toc}{\contentsline {section}{\numberline {2.3}Proximal Policy Optimization}{15}{section.41}}
\@writefile{toc}{\contentsline {subsection}{\numberline {2.3.1}Introduction to Proximal Policy Optimization}{15}{subsection.42}}
\citation{NIPS1999_1786}
\@writefile{toc}{\contentsline {subsection}{\numberline {2.3.2}Application of PPO on Bomberman}{16}{subsection.44}}
\citation{Hasselt2010}
\@writefile{toc}{\contentsline {chapter}{\numberline {3}Gradient Boosting Agent}{17}{chapter.46}}
\@writefile{lof}{\addvspace {10\p@ }}
\@writefile{lot}{\addvspace {10\p@ }}
\@writefile{lol}{\addvspace {10\p@ }}
\newlabel{GBA}{{3}{17}{Gradient Boosting Agent}{chapter.46}{}}
\@writefile{toc}{\contentsline {section}{\numberline {3.1}Coin Collection}{17}{section.49}}
\citation{Tordo1999}
\@writefile{toc}{\contentsline {section}{\numberline {3.2}Crate Navigation}{18}{section.55}}
\citation{Hastie2000}
\newlabel{fig:AgentPath}{{3.1}{19}{Coin Collection}{Item.53}{}}
\@writefile{lof}{\contentsline {figure}{\numberline {3.1}{\ignorespaces Agent Path}}{19}{figure.54}}
\newlabel{eq:ErrorComplexity}{{3.1}{19}{Crate Navigation}{equation.56}{}}
\citation{Grover2017}
\newlabel{eq:Shrinking}{{3.2}{20}{Crate Navigation}{equation.57}{}}
\newlabel{eq:ShrinkingFactor}{{3.3}{20}{Crate Navigation}{equation.58}{}}
\@writefile{toc}{\contentsline {section}{\numberline {3.3}Playing with opponents}{21}{section.69}}
\@writefile{toc}{\contentsline {chapter}{\numberline {4}Training}{23}{chapter.70}}
\@writefile{lof}{\addvspace {10\p@ }}
\@writefile{lot}{\addvspace {10\p@ }}
\@writefile{lol}{\addvspace {10\p@ }}
\newlabel{train}{{4}{23}{Training}{chapter.70}{}}
\@writefile{toc}{\contentsline {section}{\numberline {4.1}Rewards}{23}{section.71}}
\newlabel{rewards}{{4.1}{23}{Rewards}{section.71}{}}
\@writefile{toc}{\contentsline {section}{\numberline {4.2}Hyperparameter Fitting}{23}{section.72}}
\newlabel{hyper}{{4.2}{23}{Hyperparameter Fitting}{section.72}{}}
\newlabel{env-settings}{{4.2}{24}{Hyperparameter Fitting}{section.72}{}}
\@writefile{lot}{\contentsline {table}{\numberline {4.1}{\ignorespaces Criteria to evaluate the agents performance with varying parameter settings}}{24}{table.79}}
\newlabel{tab:criteria}{{4.1}{24}{Criteria to evaluate the agents performance with varying parameter settings}{table.79}{}}
\@writefile{lot}{\contentsline {table}{\numberline {4.2}{\ignorespaces Standard Settings}}{25}{table.80}}
\newlabel{tab:standard_param}{{4.2}{25}{Standard Settings}{table.80}{}}
\@writefile{lot}{\contentsline {table}{\numberline {4.3}{\ignorespaces Hyperparameters to be tested in the agents training.}}{25}{table.81}}
\newlabel{tab:test_param}{{4.3}{25}{Hyperparameters to be tested in the agents training}{table.81}{}}
\@writefile{toc}{\contentsline {subsubsection}{\nonumberline Loss}{26}{section*.82}}
\@writefile{lot}{\contentsline {table}{\numberline {4.4}{\ignorespaces Training results with varying loss function (parameters)}}{26}{table.83}}
\newlabel{tab:loss}{{4.4}{26}{Training results with varying loss function (parameters)}{table.83}{}}
\@writefile{toc}{\contentsline {subsubsection}{\nonumberline Number of steps}{26}{section*.84}}
\@writefile{lot}{\contentsline {table}{\numberline {4.5}{\ignorespaces Training results due to varying step number}}{26}{table.85}}
\newlabel{tab:n-step}{{4.5}{26}{Training results due to varying step number}{table.85}{}}
\@writefile{toc}{\contentsline {subsubsection}{\nonumberline Maximum duplicates}{26}{section*.86}}
\@writefile{lot}{\contentsline {table}{\numberline {4.6}{\ignorespaces Training results due to allowing different maximum numbers of duplicates}}{26}{table.87}}
\newlabel{tab:dup}{{4.6}{26}{Training results due to allowing different maximum numbers of duplicates}{table.87}{}}
\@writefile{toc}{\contentsline {subsubsection}{\nonumberline Shrinking Factor}{27}{section*.88}}
\@writefile{lot}{\contentsline {table}{\numberline {4.7}{\ignorespaces Training results due to varying shrinking factor values}}{27}{table.89}}
\newlabel{tab:shrink}{{4.7}{27}{Training results due to varying shrinking factor values}{table.89}{}}
\@writefile{toc}{\contentsline {subsubsection}{\nonumberline Decay}{27}{section*.90}}
\@writefile{lot}{\contentsline {table}{\numberline {4.8}{\ignorespaces Training results due to varying decay values}}{27}{table.91}}
\newlabel{tab:decay}{{4.8}{27}{Training results due to varying decay values}{table.91}{}}
\@writefile{toc}{\contentsline {subsubsection}{\nonumberline Maximum tree depth}{28}{section*.92}}
\@writefile{lot}{\contentsline {table}{\numberline {4.9}{\ignorespaces Training results due to different maximum depth of the trees}}{28}{table.93}}
\newlabel{tab:depth}{{4.9}{28}{Training results due to different maximum depth of the trees}{table.93}{}}
\@writefile{toc}{\contentsline {subsubsection}{\nonumberline Minimum number of samples per leaf}{28}{section*.94}}
\@writefile{lot}{\contentsline {table}{\numberline {4.10}{\ignorespaces Training results when varying the minimum number of samples per leaf}}{28}{table.95}}
\newlabel{tab:spl}{{4.10}{28}{Training results when varying the minimum number of samples per leaf}{table.95}{}}
\@writefile{toc}{\contentsline {subsubsection}{\nonumberline Minimum number of samples to split a node}{28}{section*.96}}
\@writefile{lot}{\contentsline {table}{\numberline {4.11}{\ignorespaces Training results due to the minimum number of samples to split a node.}}{28}{table.97}}
\newlabel{tab:min-samples}{{4.11}{28}{Training results due to the minimum number of samples to split a node}{table.97}{}}
\@writefile{toc}{\contentsline {subsubsection}{\nonumberline Number of Estimators}{29}{section*.98}}
\@writefile{lot}{\contentsline {table}{\numberline {4.12}{\ignorespaces Training results due to varying numbers of estimators}}{29}{table.99}}
\newlabel{tab:n-estimators}{{4.12}{29}{Training results due to varying numbers of estimators}{table.99}{}}
\@writefile{toc}{\contentsline {subsubsection}{\nonumberline Learning Rate}{29}{section*.100}}
\@writefile{lot}{\contentsline {table}{\numberline {4.13}{\ignorespaces Training results due to different learning rates.}}{29}{table.101}}
\newlabel{tab:learningrate}{{4.13}{29}{Training results due to different learning rates}{table.101}{}}
\@writefile{toc}{\contentsline {subsubsection}{\nonumberline Deep First Tree}{29}{section*.102}}
\@writefile{lot}{\contentsline {table}{\numberline {4.14}{\ignorespaces Allow much deeper first tree.}}{29}{table.103}}
\newlabel{tab:deep1sttree}{{4.14}{29}{Allow much deeper first tree}{table.103}{}}
\@writefile{toc}{\contentsline {section}{\numberline {4.3}Training the final agent with the selected hyperparameters}{30}{section.104}}
\@writefile{lot}{\contentsline {table}{\numberline {4.15}{\ignorespaces Settings of the final agent.}}{30}{table.105}}
\newlabel{tab:final_param}{{4.15}{30}{Settings of the final agent}{table.105}{}}
\@writefile{lot}{\contentsline {table}{\numberline {4.16}{\ignorespaces First training iterations}}{30}{table.106}}
\newlabel{tab:firsttraining}{{4.16}{30}{First training iterations}{table.106}{}}
\@writefile{lot}{\contentsline {table}{\numberline {4.17}{\ignorespaces Second training iterations}}{31}{table.107}}
\newlabel{tab:secondtraining}{{4.17}{31}{Second training iterations}{table.107}{}}
\@writefile{toc}{\contentsline {chapter}{\numberline {5}Outlook}{32}{chapter.108}}
\@writefile{lof}{\addvspace {10\p@ }}
\@writefile{lot}{\addvspace {10\p@ }}
\@writefile{lol}{\addvspace {10\p@ }}
\newlabel{outlook}{{5}{32}{Outlook}{chapter.108}{}}
\@writefile{toc}{\contentsline {section}{\numberline {5.1}Improving the Agent}{32}{section.109}}
\@writefile{toc}{\contentsline {section}{\numberline {5.2}Improving the Final Project Challenge}{32}{section.110}}
\bibstyle{plain}
\bibdata{FML}
\bibcite{Hasselt2010}{1}
\bibcite{Hastie2000}{2}
\bibcite{He2015}{3}
\bibcite{Hinton2012}{4}
\bibcite{Jordan2015}{5}
\bibcite{Kingma2014}{6}
\bibcite{NIPS1999_1786}{7}
\bibcite{Li2017}{8}
\bibcite{Mnih2013}{9}
\bibcite{Nawar2017}{10}
\bibcite{Ogutu2011}{11}
\bibcite{Grover2017}{12}
\bibcite{Ruder2016}{13}
\bibcite{Rumelhart1986}{14}
\bibcite{Russel2010}{15}
\bibcite{2015arXiv150205477S}{16}
\bibcite{DBLP:journals/corr/SchulmanWDRK17}{17}
\bibcite{Song2016}{18}
\bibcite{Srivastava2014}{19}
\bibcite{Sutton}{20}
\bibcite{Tokic2010}{21}
\bibcite{Tordo1999}{22}
\bibcite{Turing2017}{23}
\bibcite{Zhou2017}{24}
\global\@namedef{scr@dte@chapter@lastmaxnumwidth}{12.14694pt}
\global\@namedef{scr@dte@section@lastmaxnumwidth}{19.70898pt}
\global\@namedef{scr@dte@subsection@lastmaxnumwidth}{28.84563pt}
