This is BibTeX, Version 0.99d (TeX Live 2017/Debian)
Capacity: max_strings=100000, hash_size=100000, hash_prime=85009
The top-level auxiliary file: report.aux
The style file: plain.bst
Database file #1: FML.bib
Warning--empty journal in Hastie2000
Warning--there's a number but no volume in Hastie2000
Warning--empty journal in Hinton2012
Warning--empty journal in Kingma2014
Warning--empty journal in Li2017
Warning--empty journal in Mnih2013
Warning--empty journal in Ruder2016
Warning--empty publisher in Russel2010
Warning--empty journal in Song2016
Warning--there's a number but no volume in Song2016
Warning--empty institution in Sutton
Warning--empty year in Sutton
Warning--empty booktitle in Tokic2010
You've used 24 entries,
            2118 wiz_defined-function locations,
            650 strings with 7811 characters,
and the built_in function-call counts, 8345 in all, are:
= -- 821
> -- 416
< -- 6
+ -- 163
- -- 139
* -- 569
:= -- 1377
add.period$ -- 72
call.type$ -- 24
change.case$ -- 140
chr.to.int$ -- 0
cite$ -- 37
duplicate$ -- 324
empty$ -- 602
format.name$ -- 139
if$ -- 1737
int.to.chr$ -- 0
int.to.str$ -- 24
missing$ -- 22
newline$ -- 121
num.names$ -- 50
pop$ -- 159
preamble$ -- 1
purify$ -- 116
quote$ -- 0
skip$ -- 259
stack$ -- 0
substring$ -- 477
swap$ -- 83
text.length$ -- 6
text.prefix$ -- 0
top$ -- 0
type$ -- 94
warning$ -- 13
while$ -- 81
width$ -- 26
write$ -- 247
(There were 13 warnings)
